<svg xmlns="http://www.w3.org/2000/svg" viewBox="0 0 512 512" fill="white">
	<path d="M256,494.933c-5.12,0-8.533,3.413-8.533,8.533S250.88,512,256,512s8.533-3.413,8.533-8.533S261.12,494.933,256,494.933z"/>
	<path d="M256,0c-5.12,0-8.533,3.413-8.533,8.533s3.413,8.533,8.533,8.533s8.533-3.413,8.533-8.533S261.12,0,256,0z"/>
	<path d="M503.467,247.467c-5.12,0-8.533,3.413-8.533,8.533s3.413,8.533,8.533,8.533S512,261.12,512,256S508.587,247.467,503.467,247.467z"/>
	<path d="M8.533,247.467C3.413,247.467,0,250.88,0,256s3.413,8.533,8.533,8.533s8.533-3.413,8.533-8.533S13.653,247.467,8.533,247.467z"/>

	<path d="M503.467,494.933h-51.2c-5.12,0-8.533,3.413-8.533,8.533s3.413,8.533,8.533,8.533h51.2c5.12,0,8.533-3.413,8.533-8.533S508.587,494.933,503.467,494.933z"/>
	<path d="M503.467,0h-51.2c-5.12,0-8.533,3.413-8.533,8.533s3.413,8.533,8.533,8.533h51.2c5.12,0,8.533-3.413,8.533-8.533S508.587,0,503.467,0z"/>
	<path d="M59.733,494.933h-51.2c-5.12,0-8.533,3.413-8.533,8.533S3.413,512,8.533,512h51.2c5.12,0,8.533-3.413,8.533-8.533S64.853,494.933,59.733,494.933z"/>
	<path d="M59.733,0h-51.2C3.413,0,0,3.413,0,8.533s3.413,8.533,8.533,8.533h51.2c5.12,0,8.533-3.413,8.533-8.533S64.853,0,59.733,0z"/>

	<path d="M8.533,0C3.413,0,0,3.413,0,8.533v51.2c0,5.12,3.413,8.533,8.533,8.533s8.533-3.413,8.533-8.533v-51.2C17.067,3.413,13.653,0,8.533,0z"/>
	<path d="M503.467,0c-5.12,0-8.533,3.413-8.533,8.533v51.2c0,5.12,3.413,8.533,8.533,8.533S512,64.853,512,59.733v-51.2C512,3.413,508.587,0,503.467,0z"/>
	<path d="M503.467,443.733c-5.12,0-8.533,3.413-8.533,8.533v51.2c0,5.12,3.413,8.533,8.533,8.533s8.533-3.413,8.533-8.533v-51.2C512,447.147,508.587,443.733,503.467,443.733z"/>
	<path d="M8.533,443.733c-5.12,0-8.533,3.413-8.533,8.533v51.2C0,508.587,3.413,512,8.533,512s8.533-3.413,8.533-8.533v-51.2C17.067,447.147,13.653,443.733,8.533,443.733z"/>

	<path d="M315.733,247.467H196.267c-5.12,0-8.533,3.413-8.533,8.533s3.413,8.533,8.533,8.533h119.467c5.12,0,8.533-3.413,8.533-8.533S320.853,247.467,315.733,247.467z"/>
	<path d="M256,187.733c-5.12,0-8.533,3.413-8.533,8.533v119.467c0,5.12,3.413,8.533,8.533,8.533s8.533-3.413,8.533-8.533V196.267C264.533,191.147,261.12,187.733,256,187.733z"/>
</svg>
